C-RTL_Cosim-Memory/C-RTL_Cosim_Memory/C-RTL_Cosim_Memory.sim/sim_1/behav/xsim/simulate.log
Time resolution is 1 ps
==================================================
   STARTING DPI-C GOLDEN MODEL SIMULATION
==================================================

[CRITERIA 1] Basic Read/Write...
   --- Isolated Port A ---
   -> PASSED [Basic R/W] Port A | Addr: 0x0567 | Exp: 0xc6 | Got: 0xc6
   -> PASSED [Basic R/W] Port A | Addr: 0x1869 | Exp: 0x73 | Got: 0x73
   -> PASSED [Basic R/W] Port A | Addr: 0x1c51 | Exp: 0xff | Got: 0xff
   --- Isolated Port B ---
   -> PASSED [Basic R/W] Port B | Addr: 0x144a | Exp: 0xec | Got: 0xec
   -> PASSED [Basic R/W] Port B | Addr: 0x1f29 | Exp: 0xcd | Got: 0xcd
   -> PASSED [Basic R/W] Port B | Addr: 0x18ba | Exp: 0xab | Got: 0xab
   --- Simultaneous Non-Colliding ---
   -> PASSED [Basic R/W] Port A | Addr: 0x02b2 | Exp: 0xe3 | Got: 0xe3
   -> PASSED [Basic R/W] Port B | Addr: 0x0fdc | Exp: 0x46 | Got: 0x46
   -> PASSED [Basic R/W] Port A | Addr: 0x021c | Exp: 0x54 | Got: 0x54
   -> PASSED [Basic R/W] Port B | Addr: 0x1d03 | Exp: 0xf8 | Got: 0xf8
   -> PASSED [Basic R/W] Port A | Addr: 0x04bb | Exp: 0xe7 | Got: 0xe7
   -> PASSED [Basic R/W] Port B | Addr: 0x1cc9 | Exp: 0x8d | Got: 0x8d

[CRITERIA 2] Cross-Port Verification (Write A -> Read B)...
   -> PASSED [Cross-Port] Port B | Addr: 0x0f76 | Exp: 0x5a | Got: 0x5a
   -> PASSED [Cross-Port] Port B | Addr: 0x192e | Exp: 0x63 | Got: 0x63
   -> PASSED [Cross-Port] Port B | Addr: 0x0233 | Exp: 0x9f | Got: 0x9f

[CRITERIA 3] Concurrent Access Scenarios...
   -> PASSED [RD-WR Coll.] Port B | Addr: 0x0500 | Exp: 0x22 | Got: 0x22
   -> PASSED [WR-WR Coll.] Port A | Addr: 0x0700 | Exp: 0xbb | Got: 0xbb

[CRITERIA 4] Full Range Sweep (Boundaries 0x0000 and 0x1FFF)...
   -> PASSED [Boundary Sweep 1] Port A | Addr: 0x0000 | Exp: 0x11 | Got: 0x11
   -> PASSED [Boundary Sweep 1] Port B | Addr: 0x1fff | Exp: 0x99 | Got: 0x99
   -> PASSED [Boundary Sweep 2] Port A | Addr: 0x1fff | Exp: 0x22 | Got: 0x22
   -> PASSED [Boundary Sweep 2] Port B | Addr: 0x0000 | Exp: 0x88 | Got: 0x88

==================================================
   DPI-C SIMULATION COMPLETE
==================================================
$finish called at time : 350 ns : File "/home/user25/Xilinx/Vivado/Projects/C-RTL_Cosim-Memory/top.sv" Line 73
==================================================
   STARTING DPI-C GOLDEN MODEL SIMULATION
==================================================

[CRITERIA 1] Basic Read/Write...
   --- Isolated Port A ---
   -> PASSED [Basic R/W] Port A | Addr: 0x04c9 | Exp: 0x9a | Got: 0x9a
   -> PASSED [Basic R/W] Port A | Addr: 0x1b66 | Exp: 0x32 | Got: 0x32
   -> PASSED [Basic R/W] Port A | Addr: 0x100d | Exp: 0xb7 | Got: 0xb7
   --- Isolated Port B ---
   -> PASSED [Basic R/W] Port B | Addr: 0x1a31 | Exp: 0x58 | Got: 0x58
   -> PASSED [Basic R/W] Port B | Addr: 0x10a3 | Exp: 0x5a | Got: 0x5a
   -> PASSED [Basic R/W] Port B | Addr: 0x0125 | Exp: 0x5d | Got: 0x5d
   --- Simultaneous Non-Colliding ---
   -> PASSED [Basic R/W] Port A | Addr: 0x01a5 | Exp: 0x58 | Got: 0x58
   -> PASSED [Basic R/W] Port B | Addr: 0x1338 | Exp: 0xe9 | Got: 0xe9
   -> PASSED [Basic R/W] Port A | Addr: 0x0c7e | Exp: 0xab | Got: 0xab
   -> PASSED [Basic R/W] Port B | Addr: 0x18b5 | Exp: 0xb2 | Got: 0xb2
   -> PASSED [Basic R/W] Port A | Addr: 0x096d | Exp: 0x9b | Got: 0x9b
   -> PASSED [Basic R/W] Port B | Addr: 0x1d67 | Exp: 0xb4 | Got: 0xb4

[CRITERIA 2] Cross-Port Verification (Write A -> Read B)...
   -> PASSED [Cross-Port] Port B | Addr: 0x0454 | Exp: 0x11 | Got: 0x11
   -> PASSED [Cross-Port] Port B | Addr: 0x040e | Exp: 0x82 | Got: 0x82
   -> PASSED [Cross-Port] Port B | Addr: 0x1874 | Exp: 0x41 | Got: 0x41

[CRITERIA 3] Concurrent Access Scenarios...
   -> PASSED [RD-WR Coll.] Port B | Addr: 0x0500 | Exp: 0x22 | Got: 0x22
   -> PASSED [WR-WR Coll.] Port A | Addr: 0x0700 | Exp: 0xbb | Got: 0xbb

[CRITERIA 4] Full Range Sweep (Boundaries 0x0000 and 0x1FFF)...
   -> PASSED [Boundary Sweep 1] Port A | Addr: 0x0000 | Exp: 0x11 | Got: 0x11
   -> PASSED [Boundary Sweep 1] Port B | Addr: 0x1fff | Exp: 0x99 | Got: 0x99
   -> PASSED [Boundary Sweep 2] Port A | Addr: 0x1fff | Exp: 0x22 | Got: 0x22
   -> PASSED [Boundary Sweep 2] Port B | Addr: 0x0000 | Exp: 0x88 | Got: 0x88

==================================================
   DPI-C SIMULATION COMPLETE
==================================================
$finish called at time : 350 ns : File "/home/user25/Xilinx/Vivado/Projects/C-RTL_Cosim-Memory/top.sv" Line 73
INFO: xsimkernel Simulation Memory Usage: 522672 KB (Peak: 579176 KB), Simulation CPU Usage: 1840 ms
